Programming in R Workshop – MET581 - R lecture material
…
Split the “eukaryotes_nested” into 5 smaller dataframes.

Code
eukaryotes_nested |> pull(data)

[[1]]
# A tibble: 51 × 18
   organism_name       taxid bioproject_accession bioproject_id subgroup size_mb
   <chr>               <dbl> <chr>                        <dbl> <chr>      <dbl>
 1 Pyropia yezoensis    2788 PRJNA589917                 589917 Other      108. 
 2 Thalassiosira pse… 296543 PRJNA191                       191 Other       32.4
 3 Guillardia theta … 905079 PRJNA53577                   53577 Other       87.1
 4 Cyanidioschyzon m… 280699 PRJNA10792                   10792 Other       16.5
 5 Galdieria sulphur… 130081 PRJNA13023                   13023 Other       13.7
 6 Phaeodactylum tri… 556484 PRJNA13152                   13152 Other       27.5
 7 Bigelowiella nata… 753081 PRJNA47111                   47111 Other       91.4
 8 Ectocarpus silicu…   2880 PRJEA42625                   42625 Other      196. 
 9 Thalassiosira oce… 159749 PRJNA36595                   36595 Other       92.2
10 Fragilariopsis cy… 635003 PRJNA32761                   32761 Other       80.5
# ℹ 41 more rows
# ℹ 12 more variables: gc <dbl>, assembly_accession <chr>, replicons <chr>,
#   wgs <chr>, scaffolds <dbl>, genes <dbl>, proteins <dbl>,
#   release_date <date>, modify_date <date>, status <chr>, center <chr>,
#   biosample_accession <chr>

[[2]]
# A tibble: 888 × 18
   organism_name       taxid bioproject_accession bioproject_id subgroup size_mb
   <chr>               <dbl> <chr>                        <dbl> <chr>      <dbl>
 1 Emiliania huxleyi… 280463 PRJNA77753                   77753 Other P…  168.  
 2 Leishmania major … 347515 PRJNA10724                   10724 Kinetop…   32.9 
 3 Trypanosoma bruce… 679716 PRJEA40697                   40697 Kinetop…   22.1 
 4 Trypanosoma cruzi    5693 PRJNA11755                   11755 Kinetop…   89.9 
 5 Entamoeba histoly… 294381 PRJNA142                       142 Other P…   20.8 
 6 Giardia intestina…   5741 PRJNA561185                 561185 Other P…   11.5 
 7 Eimeria tenella      5802 PRJEB4863                   224694 Apicomp…   51.9 
 8 Cryptosporidium p… 353152 PRJNA144                       144 Apicomp…    9.10
 9 Toxoplasma gondii… 508771 PRJNA28893                   28893 Apicomp…   65.7 
10 Plasmodium berghei   5821 PRJEB11993                  305111 Apicomp…   18.8 
# ℹ 878 more rows
# ℹ 12 more variables: gc <dbl>, assembly_accession <chr>, replicons <chr>,
#   wgs <chr>, scaffolds <dbl>, genes <dbl>, proteins <dbl>,
#   release_date <date>, modify_date <date>, status <chr>, center <chr>,
#   biosample_accession <chr>

[[3]]
# A tibble: 1,304 × 18
   organism_name       taxid bioproject_accession bioproject_id subgroup size_mb
   <chr>               <dbl> <chr>                        <dbl> <chr>      <dbl>
 1 Arabidopsis thali…   3702 PRJNA10719                   10719 Land Pl…    120.
 2 Glycine max          3847 PRJNA19861                   19861 Land Pl…    979.
 3 Medicago truncatu…   3880 PRJNA10791                   10791 Land Pl…    413.
 4 Solanum lycopersi…   4081 PRJNA119                       119 Land Pl…    828.
 5 Hordeum vulgare s… 112509 PRJEB34217                  576847 Land Pl…   4341.
 6 Oryza sativa Japo…  39947 PRJNA12269                   12269 Land Pl…    374.
 7 Triticum aestivum    4565 PRJNA392179                 392179 Land Pl…  15419.
 8 Zea mays             4577 PRJNA10769                   10769 Land Pl…   2135.
 9 Coffea arabica      13443 PRJNA506972                 506972 Land Pl…   1094.
10 Lotus japonicus     34305 PRJDA28941                   28941 Land Pl…    394.
# ℹ 1,294 more rows
# ℹ 12 more variables: gc <dbl>, assembly_accession <chr>, replicons <chr>,
#   wgs <chr>, scaffolds <dbl>, genes <dbl>, proteins <dbl>,
#   release_date <date>, modify_date <date>, status <chr>, center <chr>,
#   biosample_accession <chr>

[[4]]
# A tibble: 6,064 × 18
   organism_name       taxid bioproject_accession bioproject_id subgroup size_mb
   <chr>               <dbl> <chr>                        <dbl> <chr>      <dbl>
 1 Pneumocystis cari… 1.41e6 PRJNA223511                 223511 Ascomyc…    7.66
 2 Schizosaccharomyc… 4.90e3 PRJNA13836                   13836 Ascomyc…   12.6 
 3 Saccharomyces cer… 5.59e5 PRJNA43747                   43747 Ascomyc…   12.2 
 4 Aspergillus nidul… 2.27e5 PRJNA130                       130 Ascomyc…   30.3 
 5 Aspergillus fumig… 3.31e5 PRJNA131                       131 Ascomyc…   29.4 
 6 Neurospora crassa… 3.67e5 PRJNA13841                   13841 Ascomyc…   41.1 
 7 Phanerochaete chr… 5.31e3 PRJNA343563                 343563 Basidio…   39.2 
 8 Candida albicans … 2.38e5 PRJNA10701                   10701 Ascomyc…   14.3 
 9 Encephalitozoon c… 2.85e5 PRJNA13833                   13833 Other F…    2.50
10 Aspergillus terre… 3.42e5 PRJNA15631                   15631 Ascomyc…   29.4 
# ℹ 6,054 more rows
# ℹ 12 more variables: gc <dbl>, assembly_accession <chr>, replicons <chr>,
#   wgs <chr>, scaffolds <dbl>, genes <dbl>, proteins <dbl>,
#   release_date <date>, modify_date <date>, status <chr>, center <chr>,
#   biosample_accession <chr>

[[5]]
# A tibble: 3,201 × 18
   organism_name       taxid bioproject_accession bioproject_id subgroup size_mb
   <chr>               <dbl> <chr>                        <dbl> <chr>      <dbl>
 1 Caenorhabditis br…   6238 PRJNA10731                   10731 Roundwo…   108. 
 2 Caenorhabditis el…   6239 PRJNA13758                   13758 Roundwo…   100. 
 3 Brugia malayi        6279 PRJNA10729                   10729 Roundwo…    93.7
 4 Aedes aegypti        7159 PRJNA392114                 392114 Insects   1279. 
 5 Aedes albopictus     7160 PRJNA552090                 552090 Insects   2538. 
 6 Anopheles gambiae… 180454 PRJNA1438                     1438 Insects    265. 
 7 Drosophila melano…   7227 PRJNA13669                   13669 Insects    144. 
 8 Apis mellifera       7460 PRJNA477511                 477511 Insects    225. 
 9 Ciona intestinalis   7719 PRJDA65419                   65419 Other A…   115. 
10 Danio rerio          7955 PRJNA11776                   11776 Fishes    1679. 
# ℹ 3,191 more rows
# ℹ 12 more variables: gc <dbl>, assembly_accession <chr>, replicons <chr>,
#   wgs <chr>, scaffolds <dbl>, genes <dbl>, proteins <dbl>,
#   release_date <date>, modify_date <date>, status <chr>, center <chr>,
#   biosample_accession <chr>
…
